<?xml version="1.0" encoding="UTF-8" standalone="no"?>
<!-- Created with Inkscape (http://www.inkscape.org/) -->

<svg
   xmlns:dc="http://purl.org/dc/elements/1.1/"
   xmlns:cc="http://creativecommons.org/ns#"
   xmlns:rdf="http://www.w3.org/1999/02/22-rdf-syntax-ns#"
   xmlns:svg="http://www.w3.org/2000/svg"
   xmlns="http://www.w3.org/2000/svg"
   xmlns:xlink="http://www.w3.org/1999/xlink"
   xmlns:sodipodi="http://sodipodi.sourceforge.net/DTD/sodipodi-0.dtd"
   xmlns:inkscape="http://www.inkscape.org/namespaces/inkscape"
   version="1.1"
   width="810"
   height="814.28571"
   id="svg2"
   sodipodi:docname="defcon_cur.svg"
   inkscape:version="0.92.3 (2405546, 2018-03-11)">
  <sodipodi:namedview
     pagecolor="#ffffff"
     bordercolor="#666666"
     borderopacity="1"
     objecttolerance="10"
     gridtolerance="10"
     guidetolerance="10"
     inkscape:pageopacity="0"
     inkscape:pageshadow="2"
     inkscape:window-width="1920"
     inkscape:window-height="1136"
     id="namedview20"
     showgrid="false"
     inkscape:zoom="0.81974766"
     inkscape:cx="233.09131"
     inkscape:cy="380.15972"
     inkscape:window-x="0"
     inkscape:window-y="27"
     inkscape:window-maximized="1"
     inkscape:current-layer="svg2" />
  <defs
     id="defs4">
    <linearGradient
       id="linearGradient3824">
      <stop
         id="stop3826"
         style="stop-color:#ff00e7;stop-opacity:1"
         offset="0" />
      <stop
         id="stop3848"
         style="stop-color:#ff0063;stop-opacity:1"
         offset="0.14262004" />
      <stop
         id="stop3846"
         style="stop-color:#ff9800;stop-opacity:1"
         offset="0.29764181" />
      <stop
         id="stop3844"
         style="stop-color:#ffd600;stop-opacity:1"
         offset="0.39622733" />
      <stop
         id="stop3850"
         style="stop-color:#eaff00;stop-opacity:1"
         offset="0.49903113" />
      <stop
         id="stop3842"
         style="stop-color:#3fff00;stop-opacity:1"
         offset="0.59650815" />
      <stop
         id="stop3840"
         style="stop-color:#00ffcc;stop-opacity:1"
         offset="0.71045828" />
      <stop
         id="stop3838"
         style="stop-color:#00f1ff;stop-opacity:1"
         offset="0.803662" />
      <stop
         id="stop3836"
         style="stop-color:#0079ff;stop-opacity:1"
         offset="0.90380263" />
      <stop
         id="stop3834"
         style="stop-color:#0011ff;stop-opacity:1"
         offset="1" />
    </linearGradient>
    <linearGradient
       x1="1346.4263"
       y1="357.75177"
       x2="1935.7659"
       y2="357.75177"
       id="linearGradient3830"
       xlink:href="#linearGradient3824"
       gradientUnits="userSpaceOnUse"
       gradientTransform="translate(-1235.5917,22.882938)" />
  </defs>
  <metadata
     id="metadata7">
    <rdf:RDF>
      <cc:Work
         rdf:about="">
        <dc:format>image/svg+xml</dc:format>
        <dc:type
           rdf:resource="http://purl.org/dc/dcmitype/StillImage" />
        <dc:title></dc:title>
      </cc:Work>
    </rdf:RDF>
  </metadata>
  <circle
     style="fill:#000000;fill-opacity:1"
     id="path4549"
     cx="405"
     cy="407.14285"
     r="395.24359" />
  <path
     style="color:#000000;font-style:normal;font-variant:normal;font-weight:normal;font-stretch:normal;font-size:medium;line-height:normal;font-family:sans-serif;font-variant-ligatures:normal;font-variant-position:normal;font-variant-caps:normal;font-variant-numeric:normal;font-variant-alternates:normal;font-feature-settings:normal;text-indent:0;text-align:start;text-decoration:none;text-decoration-line:none;text-decoration-style:solid;text-decoration-color:#000000;letter-spacing:normal;word-spacing:normal;text-transform:none;writing-mode:lr-tb;direction:ltr;text-orientation:mixed;dominant-baseline:auto;baseline-shift:baseline;text-anchor:start;white-space:normal;shape-padding:0;clip-rule:nonzero;display:inline;overflow:visible;visibility:visible;opacity:1;isolation:auto;mix-blend-mode:normal;color-interpolation:sRGB;color-interpolation-filters:linearRGB;solid-color:#000000;solid-opacity:1;vector-effect:none;fill:#666666;fill-opacity:1;fill-rule:nonzero;stroke:none;stroke-width:30;stroke-linecap:butt;stroke-linejoin:miter;stroke-miterlimit:4;stroke-dasharray:none;stroke-dashoffset:0;stroke-opacity:1;color-rendering:auto;image-rendering:auto;shape-rendering:auto;text-rendering:auto;enable-background:accumulate"
     d="M 405,0 C 181.45782,0 0,182.50562 0,407.14258 0,515.0961 42.651381,618.65019 118.5918,695.00781 194.53221,771.36544 297.57127,814.28516 405,814.28516 c 107.42873,0 210.46779,-42.91972 286.4082,-119.27735 C 767.34862,618.65019 810,515.0961 810,407.14258 810,299.18905 767.34862,195.63692 691.4082,119.2793 615.46779,42.921671 512.42873,0 405,0 Z m 0,30 C 504.44012,30 599.79876,69.709201 670.13672,140.43359 740.47468,211.15799 780,307.09061 780,407.14258 780,507.19455 740.47468,603.12717 670.13672,673.85156 599.79876,744.57596 504.44012,784.28516 405,784.28516 c -99.44012,0 -194.79876,-39.7092 -265.13672,-110.4336 C 69.525318,603.12717 30,507.19455 30,407.14258 30,198.63021 197.76008,30 405,30 Z"
     id="path3052"
     inkscape:connector-curvature="0" />
  <path
     inkscape:connector-curvature="0"
     style="fill:#c3da4b;fill-opacity:1;stroke-width:1.11967325"
     id="path3822"
     d="m 195.91333,626.32252 c 5.39213,-1.35349 11.62244,-7.52432 15.93799,-15.7857 2.52151,-4.82702 3.03935,-7.25236 3.03555,-14.21737 0,-8.58837 -0.0515,-8.74352 -8.42218,-27.70407 -3.9482,-8.9436 -3.02547,-10.31325 12.96178,-19.24006 31.62799,-17.66001 130.25014,-68.25421 162.66535,-83.449 6.33018,-2.96731 11.36871,-5.52273 11.19673,-5.6787 -0.63574,-0.57673 -57.22559,-32.09121 -58.51143,-32.58465 -0.73362,-0.28149 -22.95678,12.17206 -49.38487,27.67458 -81.94832,48.07038 -94.27157,54.76706 -100.78234,54.76706 -3.01316,0 -4.41264,-1.10465 -9.57477,-7.5578 -7.0526,-8.81638 -14.43148,-14.13374 -23.11711,-16.65874 -16.18051,-4.7038 -37.06017,5.35141 -42.82783,20.62496 -4.53356,12.00575 -0.93571,27.29471 8.46158,35.95686 5.61977,5.18013 10.58416,7.85022 24.50381,13.17953 5.60488,2.14584 11.15497,4.83935 12.33388,5.98558 2.1089,2.05061 2.08561,2.23001 -1.45132,11.18068 -6.59644,16.69277 -6.79731,26.1163 -0.80471,37.74767 3.69537,7.17258 7.82685,11.33222 13.94262,14.0375 8.9295,3.94995 18.71153,4.5144 29.83727,1.72167 z m 423.10907,-10.3144 c 11.58011,-3.4851 17.72174,-11.98124 17.81939,-24.65053 0.0292,-3.73709 -1.13859,-12.94755 -2.59419,-20.46769 -3.30885,-17.09564 -3.07047,-17.55341 9.70455,-18.63331 11.87067,-1.00344 17.02978,-2.80769 21.87091,-7.64887 5.61013,-5.61011 9.16453,-17.04835 9.18424,-29.55536 0.0257,-16.55762 -7.54929,-26.52512 -22.52144,-29.63335 -13.54134,-2.81116 -28.07649,4.31572 -37.90429,18.58524 -3.90945,5.67645 -4.37323,6.00295 -6.53789,4.60371 -10.92948,-7.06483 -82.32678,-50.35744 -101.421,-61.49776 -13.24014,-7.72486 -31.48533,-18.42433 -40.54494,-23.77659 l -16.47208,-9.73138 1.76517,-2.69394 c 0.97075,-1.48168 2.2165,-2.69395 2.76828,-2.69395 0.55177,0 4.90249,2.42766 9.66838,5.39481 4.76589,2.96714 9.25623,5.74408 9.97852,6.17097 2.84174,1.67941 139.25364,-68.46503 175.3724,-90.17829 6.76383,-4.0662 11.70383,-6.35056 12.87624,-5.95431 1.04623,0.35361 4.42137,4.46705 7.50047,9.14098 6.70639,10.17997 14.61364,16.58445 24.13422,19.54758 12.0917,3.76336 22.7137,2.44059 29.70673,-3.69941 12.89616,-11.32304 15.68304,-42.78439 4.87965,-55.08875 -4.36572,-4.97224 -10.47522,-7.2925 -22.83585,-8.67252 -5.5697,-0.62185 -10.7577,-1.65435 -11.52905,-2.29448 -2.31369,-1.92023 -1.61916,-7.28782 2.63683,-20.37749 7.10523,-21.85257 6.30533,-37.69506 -2.2839,-45.2365 -8.55241,-7.50908 -30.53204,-9.21669 -43.30292,-3.36423 -11.80718,5.41083 -16.11557,14.78336 -16.11557,35.0582 0,7.38984 0.43096,16.47861 0.95765,20.19727 l 0.95755,6.7612 -6.55591,4.37159 c -13.861,9.24262 -41.88239,25.63586 -55.73129,32.60422 -22.09272,11.11634 -25.25658,9.67552 -18.1602,-8.27002 21.37657,-54.05802 16.26213,-107.01269 -14.79022,-153.1355 -31.55385,-46.86773 -85.55467,-77.757624 -135.93359,-77.757624 -45.55995,0 -92.66483,18.394887 -124.96326,48.799264 -20.82435,19.6032 -34.39401,40.6504 -43.22432,67.04323 -8.34245,24.93468 -10.7268,56.32027 -6.56901,86.4676 2.01307,14.59665 1.54807,17.14587 -3.12758,17.14587 -4.84874,0 -43.26439,-22.11175 -52.86336,-30.42772 l -4.29663,-3.72232 3.11258,-6.1582 c 5.98107,-11.83352 4.64989,-33.62624 -2.70054,-44.21054 -5.97335,-8.60138 -17.01657,-13.33136 -31.00744,-13.28091 -14.48308,0.0521 -23.47316,6.35605 -27.46826,19.26059 -2.79236,9.0195 -2.78306,15.49568 0.0369,25.35461 4.2186,14.75169 2.91866,17.34725 -10.97739,21.91812 -21.980863,7.23023 -26.528865,13.18307 -26.45396,34.62538 0.04811,13.6492 2.38927,21.22552 8.917415,28.8522 9.28769,10.85046 26.781695,14.18566 40.136365,7.65184 4.11525,-2.01337 8.14496,-5.25032 11.61527,-9.33018 8.93946,-10.50955 11.20971,-12.61811 13.58599,-12.61811 1.25729,0 6.96437,2.84047 12.68243,6.31216 5.71794,3.47169 33.57351,19.66198 61.90125,35.97843 71.42753,41.14142 95.6969,55.41616 108.04847,63.5519 14.00386,9.22398 52.01117,30.46955 80.40642,44.94607 57.62723,29.37961 159.69093,89.30871 170.48862,100.1064 2.79593,2.79599 2.74701,7.92973 -0.15508,16.25175 -3.21704,9.22548 -3.11079,16.67897 0.34542,24.22836 5.78435,12.63469 20.79099,18.40251 35.98337,13.83029 z M 378.97991,365.73865 c -32.85143,-6.93773 -58.47124,-27.61013 -75.02147,-60.53425 -7.30542,-14.53276 -10.36325,-23.48035 -14.99847,-43.88608 -0.61077,-2.68865 -1.2641,-3.05521 -5.9879,-3.35901 -3.9942,-0.25689 -5.39425,-0.82444 -5.6745,-2.30045 -0.33781,-1.779 0.88028,-1.95943 13.22816,-1.95943 12.34797,0 13.56606,0.18043 13.22826,1.95943 -0.28137,1.48133 -1.68555,2.04343 -5.75534,2.30375 l -5.38316,0.34432 0.71133,3.57453 c 1.77165,8.90215 6.61279,24.1914 10.55582,33.33755 12.1096,28.08832 29.09718,47.01423 52.14397,58.09359 13.06546,6.28094 20.73613,8.49378 34.98979,10.09377 17.37441,1.95029 37.2775,-1.52372 57.88061,-10.10284 29.4492,-12.26261 50.87325,-33.67655 59.44581,-59.41783 3.28758,-9.87179 6.01913,-23.74903 6.07859,-30.88137 0.0381,-4.6186 -0.0257,-4.69639 -4.15041,-5.03853 -2.92794,-0.24287 -4.30133,-0.93756 -4.56087,-2.30694 -0.33153,-1.74943 0.71748,-1.95943 9.78784,-1.95943 9.41276,0 10.15914,0.16454 10.15914,2.23934 0,1.81281 -0.74638,2.23936 -3.91886,2.23936 h -3.91885 v 7.7645 c 0,12.21713 -4.10349,28.65099 -10.09655,40.4353 -12.7514,25.07333 -35.26758,43.29689 -67.58505,54.70016 -19.59338,6.91357 -42.29688,8.64369 -61.15789,4.66056 z M 333.34304,218.35443 c -18.50283,-9.22037 -23.37497,-33.48724 -9.91918,-49.40527 1.66171,-1.96569 6.10456,-5.11477 9.87317,-6.99796 24.61892,-12.30218 51.86517,10.56627 44.16159,37.0658 -2.29387,7.89075 -9.33393,16.03504 -16.91064,19.56322 -8.12726,3.78456 -19.34394,3.69146 -27.20494,-0.22579 z m 117.83239,0.29267 c -7.31561,-3.48211 -12.56396,-8.83317 -15.97818,-16.29075 -2.34056,-5.11237 -2.67401,-7.20361 -2.23296,-14.00273 0.58659,-9.04205 2.65329,-13.9003 8.5608,-20.12415 6.81679,-7.18184 11.60048,-9.11556 22.54999,-9.11556 7.65521,0 10.42304,0.48181 14.14651,2.46257 6.52971,3.47355 11.53555,8.84259 14.7106,15.77771 2.29141,5.00513 2.659,7.25722 2.28548,14.00274 -0.51461,9.29426 -2.94955,15.11505 -8.74913,20.91459 -5.96326,5.96328 -11.59231,8.2612 -21.27379,8.6844 -7.02505,0.30708 -9.31635,-0.0702 -14.01932,-2.30882 z" />
  <flowRoot
     xml:space="preserve"
     id="flowRoot844"
     style="fill:black;fill-opacity:1;stroke:none;font-family:sans-serif;font-style:normal;font-weight:normal;font-size:40px;line-height:1.25;letter-spacing:0px;word-spacing:0px"><flowRegion
       id="flowRegion846"><rect
         id="rect848"
         width="372.0657"
         height="601.4046"
         x="-375.72537"
         y="-96.970329" /></flowRegion><flowPara
       id="flowPara850" /></flowRoot>  <g
     aria-label="DC20e6"
     style="font-style:normal;font-variant:normal;font-weight:bold;font-stretch:normal;font-size:427.01367188px;line-height:1.25;font-family:'Courier 10 Pitch';-inkscape-font-specification:'Courier 10 Pitch Bold';letter-spacing:0px;word-spacing:0px;fill:#ffffff;fill-opacity:1;stroke:#1a1a1a;stroke-width:3.09073615;stroke-miterlimit:4;stroke-dasharray:none"
     id="text841">
    <path
       d="m 195.7416,630.15863 18.76525,-93.40924 h -40.03253 l -18.76525,93.40924 z m -69.22292,13.34418 24.18633,-120.0976 h 80.06506 l -2.91904,13.34418 h 13.34418 l -18.76525,93.40924 h -13.34418 l -2.50203,13.34418 z"
       style="font-style:italic;font-variant:normal;font-weight:bold;font-stretch:normal;font-family:'Game Over';-inkscape-font-specification:'Game Over Bold Italic';fill:#ffffff;stroke:#1a1a1a;stroke-width:3.09073615;stroke-miterlimit:4;stroke-dasharray:none"
       id="path847" />
    <path
       d="m 246.61628,643.50281 2.50203,-13.34418 h -13.34417 l 18.76524,-93.40924 h 13.34418 l 2.91904,-13.34418 h 66.72089 l -2.91904,13.34418 h -53.37671 l -15.84621,80.06506 h 53.37671 l -5.42107,26.68836 z"
       style="font-style:italic;font-variant:normal;font-weight:bold;font-stretch:normal;font-family:'Game Over';-inkscape-font-specification:'Game Over Bold Italic';fill:#ffffff;stroke:#1a1a1a;stroke-width:3.09073615;stroke-miterlimit:4;stroke-dasharray:none"
       id="path849" />
    <path
       d="m 326.68134,643.50281 13.34418,-66.72089 h 13.34418 l 2.50203,-13.34418 h 40.03253 l 5.42107,-26.68835 h -53.3767 l 2.91903,-13.34418 h 66.72089 l -2.91904,13.34418 h 13.34418 l -5.42107,26.68835 h -13.34418 l -2.50203,13.34418 h -40.03254 l -10.84214,53.37671 h 53.37671 l -2.50203,13.34418 z"
       style="font-style:italic;font-variant:normal;font-weight:bold;font-stretch:normal;font-family:'Game Over';-inkscape-font-specification:'Game Over Bold Italic';fill:#ffffff;stroke:#1a1a1a;stroke-width:3.09073615;stroke-miterlimit:4;stroke-dasharray:none"
       id="path851" />
    <path
       d="m 475.96933,630.15863 18.76525,-93.40924 h -26.68836 l -18.76525,93.40924 z m -42.53457,13.34418 2.50203,-13.34418 h -13.34417 l 18.76525,-93.40924 h 13.34417 l 2.91904,-13.34418 h 53.37671 l -2.91904,13.34418 h 13.34418 l -18.76525,93.40924 H 489.3135 l -2.50203,13.34418 z"
       style="font-style:italic;font-variant:normal;font-weight:bold;font-stretch:normal;font-family:'Game Over';-inkscape-font-specification:'Game Over Bold Italic';fill:#ffffff;stroke:#1a1a1a;stroke-width:3.09073615;stroke-miterlimit:4;stroke-dasharray:none"
       id="path853" />
    <path
       d="m 588.14382,603.47028 2.91903,-13.34418 h 13.34418 l -2.91904,13.34418 z m -61.29982,40.03253 2.50204,-13.34418 h -13.34418 l 8.34011,-40.03253 h 13.34418 l 2.50203,-13.34418 h 53.37671 l -2.50204,13.34418 h -40.03253 l -2.91904,13.34418 h 40.03254 l -2.50204,13.34417 h -40.03253 l -2.91904,13.34418 h 53.37671 l -2.50203,13.34418 z"
       style="font-style:italic;font-variant:normal;font-weight:bold;font-stretch:normal;font-family:'Game Over';-inkscape-font-specification:'Game Over Bold Italic';fill:#ffffff;stroke:#1a1a1a;stroke-width:3.09073615;stroke-miterlimit:4;stroke-dasharray:none"
       id="path855" />
    <path
       d="m 676.13198,630.15863 10.84215,-53.37671 h 13.34418 l -10.84215,53.37671 z m -55.87874,13.34418 2.50204,-13.34418 H 609.4111 l 18.76525,-93.40924 h 13.34417 l 2.91904,-13.34418 h 66.72089 l -2.91904,13.34418 H 654.8647 l -5.42107,26.68835 h 40.03253 l -2.50203,13.34418 H 646.9416 l -10.84215,53.37671 h 40.03253 l -2.50203,13.34418 z"
       style="font-style:italic;font-variant:normal;font-weight:bold;font-stretch:normal;font-family:'Game Over';-inkscape-font-specification:'Game Over Bold Italic';fill:#ffffff;stroke:#1a1a1a;stroke-width:3.09073615;stroke-miterlimit:4;stroke-dasharray:none"
       id="path857" />
  </g>
</svg>
